{
	"info": {
		"_postman_id": "18cff46f-2dce-49ed-ac49-87e236f4e8c9",
		"name": "SpringbootMVC",
		"schema": "https://schema.getpostman.com/json/collection/v2.1.0/collection.json"
	},
	"item": [
		{
			"name": "Agencia - nova entidade",
			"request": {
				"method": "POST",
				"header": [],
				"body": {
					"mode": "raw",
					"raw": "{\n    \"codigo\":1001,\n    \"nome\":\"Agencia Inter\"\n}",
					"options": {
						"raw": {
							"language": "json"
						}
					}
				},
				"url": {
					"raw": "{{url}}/api/agencia/novo",
					"host": [
						"{{url}}"
					],
					"path": [
						"api",
						"agencia",
						"novo"
					]
				}
			},
			"response": []
		},
		{
			"name": "Agencia - update",
			"request": {
				"method": "PUT",
				"header": [],
				"body": {
					"mode": "raw",
					"raw": "{\n    \"codigo\":1001,\n    \"nome\":\"Banco Inter X\"\n}",
					"options": {
						"raw": {
							"language": "json"
						}
					}
				},
				"url": {
					"raw": "{{url}}/api/agencia/editar/1",
					"host": [
						"{{url}}"
					],
					"path": [
						"api",
						"agencia",
						"editar",
						"1"
					]
				}
			},
			"response": []
		},
		{
			"name": "Agencia - buscar todos",
			"protocolProfileBehavior": {
				"disableBodyPruning": true
			},
			"request": {
				"method": "GET",
				"header": [],
				"body": {
					"mode": "raw",
					"raw": "{\n    \"codigo\":1001,\n    \"nome\":\"Agencia Inter\"\n}",
					"options": {
						"raw": {
							"language": "json"
						}
					}
				},
				"url": {
					"raw": "{{url}}/api/agencia/ver/1",
					"host": [
						"{{url}}"
					],
					"path": [
						"api",
						"agencia",
						"ver",
						"1"
					]
				}
			},
			"response": []
		},
		{
			"name": "Agencia - buscar por ID",
			"protocolProfileBehavior": {
				"disableBodyPruning": true
			},
			"request": {
				"method": "GET",
				"header": [],
				"body": {
					"mode": "raw",
					"raw": "{\n    \"codigo\":1001,\n    \"nome\":\"Agencia Inter\"\n}",
					"options": {
						"raw": {
							"language": "json"
						}
					}
				},
				"url": {
					"raw": "{{url}}/api/agencia/ver/1",
					"host": [
						"{{url}}"
					],
					"path": [
						"api",
						"agencia",
						"ver",
						"1"
					]
				}
			},
			"response": []
		},
		{
			"name": "Banco - nova entidade",
			"request": {
				"method": "POST",
				"header": [],
				"body": {
					"mode": "raw",
					"raw": "{\n    \"codigo\":1001,\n    \"nome\":\"Banco Inter X\"\n}",
					"options": {
						"raw": {
							"language": "json"
						}
					}
				},
				"url": {
					"raw": "{{url}}/api/banco/novo",
					"host": [
						"{{url}}"
					],
					"path": [
						"api",
						"banco",
						"novo"
					]
				}
			},
			"response": []
		},
		{
			"name": "Banco - update",
			"request": {
				"method": "PUT",
				"header": [],
				"body": {
					"mode": "raw",
					"raw": "{\n    \"codigo\":1001,\n    \"nome\":\"Banco New X\"\n}",
					"options": {
						"raw": {
							"language": "json"
						}
					}
				},
				"url": {
					"raw": "{{url}}/api/banco/editar/1",
					"host": [
						"{{url}}"
					],
					"path": [
						"api",
						"banco",
						"editar",
						"1"
					]
				}
			},
			"response": []
		},
		{
			"name": "Banco - buscar todos",
			"protocolProfileBehavior": {
				"disableBodyPruning": true
			},
			"request": {
				"method": "GET",
				"header": [],
				"body": {
					"mode": "raw",
					"raw": "{\n    \"codigo\":1001,\n    \"nome\":\"Banco Inter X\"\n}",
					"options": {
						"raw": {
							"language": "json"
						}
					}
				},
				"url": {
					"raw": "{{url}}/api/banco/todos",
					"host": [
						"{{url}}"
					],
					"path": [
						"api",
						"banco",
						"todos"
					]
				}
			},
			"response": []
		},
		{
			"name": "Banco - buscar por ID",
			"protocolProfileBehavior": {
				"disableBodyPruning": true
			},
			"request": {
				"method": "GET",
				"header": [],
				"body": {
					"mode": "raw",
					"raw": "{\n    \"codigo\":1001,\n    \"nome\":\"Banco Inter X\"\n}",
					"options": {
						"raw": {
							"language": "json"
						}
					}
				},
				"url": {
					"raw": "{{url}}/api/banco/ver/1",
					"host": [
						"{{url}}"
					],
					"path": [
						"api",
						"banco",
						"ver",
						"1"
					]
				}
			},
			"response": []
		},
		{
			"name": "Cidade - nova entidade",
			"request": {
				"method": "POST",
				"header": [],
				"body": {
					"mode": "raw",
					"raw": "{\n    \"nome\":\"Porto Alegre\"\n}",
					"options": {
						"raw": {
							"language": "json"
						}
					}
				},
				"url": {
					"raw": "{{url}}/api/cidade/novo",
					"host": [
						"{{url}}"
					],
					"path": [
						"api",
						"cidade",
						"novo"
					]
				}
			},
			"response": []
		},
		{
			"name": "Cidade - update",
			"request": {
				"method": "PUT",
				"header": [],
				"body": {
					"mode": "raw",
					"raw": "{\n    \"nome\":\"Porto Alegre II\"\n}",
					"options": {
						"raw": {
							"language": "json"
						}
					}
				},
				"url": {
					"raw": "{{url}}/api/cidade/editar/1",
					"host": [
						"{{url}}"
					],
					"path": [
						"api",
						"cidade",
						"editar",
						"1"
					]
				}
			},
			"response": []
		},
		{
			"name": "Cidade - buscar todos",
			"protocolProfileBehavior": {
				"disableBodyPruning": true
			},
			"request": {
				"method": "GET",
				"header": [],
				"body": {
					"mode": "raw",
					"raw": "{\n    \"nome\":\"Porto Alegre II\"\n}",
					"options": {
						"raw": {
							"language": "json"
						}
					}
				},
				"url": {
					"raw": "{{url}}/api/cidade/todos",
					"host": [
						"{{url}}"
					],
					"path": [
						"api",
						"cidade",
						"todos"
					]
				}
			},
			"response": []
		},
		{
			"name": "Cidade - buscar por ID",
			"protocolProfileBehavior": {
				"disableBodyPruning": true
			},
			"request": {
				"method": "GET",
				"header": [],
				"body": {
					"mode": "raw",
					"raw": "{\n    \"nome\":\"Porto Alegre II\"\n}",
					"options": {
						"raw": {
							"language": "json"
						}
					}
				},
				"url": {
					"raw": "{{url}}/api/cidade/ver/1",
					"host": [
						"{{url}}"
					],
					"path": [
						"api",
						"cidade",
						"ver",
						"1"
					]
				}
			},
			"response": []
		},
		{
			"name": "Consolidacao - nova entidade",
			"request": {
				"method": "POST",
				"header": [],
				"body": {
					"mode": "raw",
					"raw": "{\n    \"saldoAtual\":200.0,\n    \"saques\": 50.0,\n    \"depositos\": 250.0,\n    \"qtdCorrentista\": 1,\n    \"agencia\": { \"id\":1}\n}",
					"options": {
						"raw": {
							"language": "json"
						}
					}
				},
				"url": {
					"raw": "{{url}}/api/consolidacao/novo",
					"host": [
						"{{url}}"
					],
					"path": [
						"api",
						"consolidacao",
						"novo"
					]
				}
			},
			"response": []
		},
		{
			"name": "Consolidacao - update",
			"request": {
				"method": "PUT",
				"header": [],
				"body": {
					"mode": "raw",
					"raw": "{\n    \"saldoAtual\":200.0,\n    \"saques\": 50.0,\n    \"depositos\": 250.0,\n    \"qtdCorrentista\": 2\n}",
					"options": {
						"raw": {
							"language": "json"
						}
					}
				},
				"url": {
					"raw": "{{url}}/api/consolidacao/editar/1",
					"host": [
						"{{url}}"
					],
					"path": [
						"api",
						"consolidacao",
						"editar",
						"1"
					]
				}
			},
			"response": []
		},
		{
			"name": "Consolidacao - buscar todos",
			"protocolProfileBehavior": {
				"disableBodyPruning": true
			},
			"request": {
				"method": "GET",
				"header": [],
				"body": {
					"mode": "raw",
					"raw": "{\n    \"saldoAtual\":200.0,\n    \"saques\": 50.0,\n    \"depositos\": 250.0,\n    \"qtdCorrentista\": 2\n}",
					"options": {
						"raw": {
							"language": "json"
						}
					}
				},
				"url": {
					"raw": "{{url}}/api/consolidacao/todos",
					"host": [
						"{{url}}"
					],
					"path": [
						"api",
						"consolidacao",
						"todos"
					]
				},
				"description": "Retornando Status 500"
			},
			"response": []
		},
		{
			"name": "Consolidacao - Buscar por ID",
			"protocolProfileBehavior": {
				"disableBodyPruning": true
			},
			"request": {
				"method": "GET",
				"header": [],
				"body": {
					"mode": "raw",
					"raw": "{\n    \"saldoAtual\":200.0,\n    \"saques\": 50.0,\n    \"depositos\": 250.0,\n    \"qtdCorrentista\": 2\n}",
					"options": {
						"raw": {
							"language": "json"
						}
					}
				},
				"url": {
					"raw": "{{url}}/api/consolidacao/ver/1",
					"host": [
						"{{url}}"
					],
					"path": [
						"api",
						"consolidacao",
						"ver",
						"1"
					]
				}
			},
			"response": []
		},
		{
			"name": "Endereco - nova entidade",
			"request": {
				"method": "POST",
				"header": [],
				"body": {
					"mode": "raw",
					"raw": "{\n    \"logradouro\":\"teste teste teste\",\n    \"numero\": 99,\n    \"complemento\": \"bloco teste\",\n    \"bairro\": \"bairro teste\"\n}",
					"options": {
						"raw": {
							"language": "json"
						}
					}
				},
				"url": {
					"raw": "{{url}}/api/endereco/novo",
					"host": [
						"{{url}}"
					],
					"path": [
						"api",
						"endereco",
						"novo"
					]
				},
				"description": "cep por char nao esta indo"
			},
			"response": []
		},
		{
			"name": "Endereco - update",
			"request": {
				"method": "PUT",
				"header": [],
				"body": {
					"mode": "raw",
					"raw": "{\n    \"logradouro\":\"testeAteste teste\",\n    \"numero\": 99,\n    \"complemento\": \"bloco teste\",\n    \"bairro\": \"bairro teste\"\n}",
					"options": {
						"raw": {
							"language": "json"
						}
					}
				},
				"url": {
					"raw": "{{url}}/api/endereco/editar/1",
					"host": [
						"{{url}}"
					],
					"path": [
						"api",
						"endereco",
						"editar",
						"1"
					]
				}
			},
			"response": []
		},
		{
			"name": "Endereco - buscar todos",
			"protocolProfileBehavior": {
				"disableBodyPruning": true
			},
			"request": {
				"method": "GET",
				"header": [],
				"body": {
					"mode": "raw",
					"raw": "{\n    \"logradouro\":\"testeAteste teste\",\n    \"numero\": 99,\n    \"complemento\": \"bloco teste\",\n    \"bairro\": \"bairro teste\"\n}",
					"options": {
						"raw": {
							"language": "json"
						}
					}
				},
				"url": {
					"raw": "{{url}}/api/endereco/todos",
					"host": [
						"{{url}}"
					],
					"path": [
						"api",
						"endereco",
						"todos"
					]
				}
			},
			"response": []
		},
		{
			"name": "Endereco - buscar por ID",
			"protocolProfileBehavior": {
				"disableBodyPruning": true
			},
			"request": {
				"method": "GET",
				"header": [],
				"body": {
					"mode": "raw",
					"raw": "{\n    \"logradouro\":\"testeAteste teste\",\n    \"numero\": 99,\n    \"complemento\": \"bloco teste\",\n    \"bairro\": \"bairro teste\"\n}",
					"options": {
						"raw": {
							"language": "json"
						}
					}
				},
				"url": {
					"raw": "{{url}}/api/endereco/ver/1",
					"host": [
						"{{url}}"
					],
					"path": [
						"api",
						"endereco",
						"ver",
						"1"
					]
				}
			},
			"response": []
		},
		{
			"name": "Estado - nova entidade",
			"request": {
				"method": "POST",
				"header": [],
				"body": {
					"mode": "raw",
					"raw": "{\n    \"nome\": \"RS\",\n    \"id_pais\" : 1\n}",
					"options": {
						"raw": {
							"language": "json"
						}
					}
				},
				"url": {
					"raw": "{{url}}/api/estado/novo",
					"host": [
						"{{url}}"
					],
					"path": [
						"api",
						"estado",
						"novo"
					]
				}
			},
			"response": []
		},
		{
			"name": "Estado - update",
			"request": {
				"method": "PUT",
				"header": [],
				"body": {
					"mode": "raw",
					"raw": "{\n    \"nome\": \"RS+\",\n    \"id_pais\" : 1\n}",
					"options": {
						"raw": {
							"language": "json"
						}
					}
				},
				"url": {
					"raw": "{{url}}/api/estado/editar/1",
					"host": [
						"{{url}}"
					],
					"path": [
						"api",
						"estado",
						"editar",
						"1"
					]
				}
			},
			"response": []
		},
		{
			"name": "Estado - buscar todos",
			"protocolProfileBehavior": {
				"disableBodyPruning": true
			},
			"request": {
				"method": "GET",
				"header": [],
				"body": {
					"mode": "raw",
					"raw": "{\n    \"nome\": \"RS+\",\n    \"id_pais\" : 1\n}",
					"options": {
						"raw": {
							"language": "json"
						}
					}
				},
				"url": {
					"raw": "{{url}}/api/estado/todos",
					"host": [
						"{{url}}"
					],
					"path": [
						"api",
						"estado",
						"todos"
					]
				}
			},
			"response": []
		},
		{
			"name": "Estado - buscar por ID",
			"protocolProfileBehavior": {
				"disableBodyPruning": true
			},
			"request": {
				"method": "GET",
				"header": [],
				"body": {
					"mode": "raw",
					"raw": "{\n    \"nome\": \"RS+\",\n    \"id_pais\" : 1\n}",
					"options": {
						"raw": {
							"language": "json"
						}
					}
				},
				"url": {
					"raw": "{{url}}/api/estado/ver/1",
					"host": [
						"{{url}}"
					],
					"path": [
						"api",
						"estado",
						"ver",
						"1"
					]
				}
			},
			"response": []
		},
		{
			"name": "Gerente - nova entidade",
			"request": {
				"method": "POST",
				"header": [],
				"body": {
					"mode": "raw",
					"raw": "{\n    \"nome\": \"Gerente teste\",\n    \"codigo\": 2123\n}",
					"options": {
						"raw": {
							"language": "json"
						}
					}
				},
				"url": {
					"raw": "{{url}}/api/gerente/novo",
					"host": [
						"{{url}}"
					],
					"path": [
						"api",
						"gerente",
						"novo"
					]
				}
			},
			"response": []
		},
		{
			"name": "Gerente - update",
			"request": {
				"method": "PUT",
				"header": [],
				"body": {
					"mode": "raw",
					"raw": "{\n    \"nome\": \"Gerente testeX\",\n    \"codigo\": 2123\n}",
					"options": {
						"raw": {
							"language": "json"
						}
					}
				},
				"url": {
					"raw": "{{url}}/api/gerente/editar/1",
					"host": [
						"{{url}}"
					],
					"path": [
						"api",
						"gerente",
						"editar",
						"1"
					]
				}
			},
			"response": []
		},
		{
			"name": "Gerente - buscar todos",
			"protocolProfileBehavior": {
				"disableBodyPruning": true
			},
			"request": {
				"method": "GET",
				"header": [],
				"body": {
					"mode": "raw",
					"raw": "{\n    \"nome\": \"Gerente testeX\",\n    \"codigo\": 2123\n}",
					"options": {
						"raw": {
							"language": "json"
						}
					}
				},
				"url": {
					"raw": "{{url}}/api/gerente/todos",
					"host": [
						"{{url}}"
					],
					"path": [
						"api",
						"gerente",
						"todos"
					]
				}
			},
			"response": []
		},
		{
			"name": "Gerente - buscar por ID",
			"protocolProfileBehavior": {
				"disableBodyPruning": true
			},
			"request": {
				"method": "GET",
				"header": [],
				"body": {
					"mode": "raw",
					"raw": "{\n    \"nome\": \"Gerente testeX\",\n    \"codigo\": 2123\n}",
					"options": {
						"raw": {
							"language": "json"
						}
					}
				},
				"url": {
					"raw": "{{url}}/api/gerente/ver/1",
					"host": [
						"{{url}}"
					],
					"path": [
						"api",
						"gerente",
						"ver",
						"1"
					]
				}
			},
			"response": []
		},
		{
			"name": "Movimentacao - nova entidade",
			"request": {
				"method": "POST",
				"header": [],
				"body": {
					"mode": "raw",
					"raw": "{\n    \"valor\": 5000.0,\n    \"tipoMovimentacao\": \"DEBITO\"\n}",
					"options": {
						"raw": {
							"language": "json"
						}
					}
				},
				"url": {
					"raw": "{{url}}/api/movimentacao/novo",
					"host": [
						"{{url}}"
					],
					"path": [
						"api",
						"movimentacao",
						"novo"
					]
				}
			},
			"response": []
		},
		{
			"name": "Movimentacao - update",
			"request": {
				"method": "PUT",
				"header": [],
				"body": {
					"mode": "raw",
					"raw": "{\n    \"valor\": 8000.0,\n    \"tipoMovimentacao\": \"DEBITO\"\n}",
					"options": {
						"raw": {
							"language": "json"
						}
					}
				},
				"url": {
					"raw": "{{url}}/api/movimentacao/editar/1",
					"host": [
						"{{url}}"
					],
					"path": [
						"api",
						"movimentacao",
						"editar",
						"1"
					]
				}
			},
			"response": []
		},
		{
			"name": "Movimentacao - buscar todos",
			"protocolProfileBehavior": {
				"disableBodyPruning": true
			},
			"request": {
				"method": "GET",
				"header": [],
				"body": {
					"mode": "raw",
					"raw": "{\n    \"valor\": 8000.0,\n    \"tipoMovimentacao\": \"DEBITO\"\n}",
					"options": {
						"raw": {
							"language": "json"
						}
					}
				},
				"url": {
					"raw": "{{url}}/api/movimentacao/todos",
					"host": [
						"{{url}}"
					],
					"path": [
						"api",
						"movimentacao",
						"todos"
					]
				}
			},
			"response": []
		},
		{
			"name": "Movimentacao - buscar por ID",
			"protocolProfileBehavior": {
				"disableBodyPruning": true
			},
			"request": {
				"method": "GET",
				"header": [],
				"body": {
					"mode": "raw",
					"raw": "{\n    \"valor\": 8000.0,\n    \"tipoMovimentacao\": \"DEBITO\"\n}",
					"options": {
						"raw": {
							"language": "json"
						}
					}
				},
				"url": {
					"raw": "{{url}}/api/movimentacao/ver/1",
					"host": [
						"{{url}}"
					],
					"path": [
						"api",
						"movimentacao",
						"ver",
						"1"
					]
				}
			},
			"response": []
		},
		{
			"name": "Pais - nova entidade",
			"request": {
				"method": "POST",
				"header": [],
				"body": {
					"mode": "raw",
					"raw": "{\n    \"nome\":\"Brasil\"\n}",
					"options": {
						"raw": {
							"language": "json"
						}
					}
				},
				"url": {
					"raw": "{{url}}/api/pais/novo",
					"host": [
						"{{url}}"
					],
					"path": [
						"api",
						"pais",
						"novo"
					]
				},
				"description": "{\n    \"nome\":\"nome\"\n}"
			},
			"response": []
		},
		{
			"name": "Pais - update",
			"request": {
				"method": "PUT",
				"header": [],
				"body": {
					"mode": "raw",
					"raw": "{\n    \"nome\":\"Brazil\",\n    \"id\":1\n}",
					"options": {
						"raw": {
							"language": "json"
						}
					}
				},
				"url": {
					"raw": "{{url}}/api/pais/editar/1",
					"host": [
						"{{url}}"
					],
					"path": [
						"api",
						"pais",
						"editar",
						"1"
					]
				}
			},
			"response": []
		},
		{
			"name": "Pais - buscar todos",
			"protocolProfileBehavior": {
				"disableBodyPruning": true
			},
			"request": {
				"method": "GET",
				"header": [],
				"body": {
					"mode": "raw",
					"raw": "{\n    \"nome\":\"Brasil\"\n}",
					"options": {
						"raw": {
							"language": "json"
						}
					}
				},
				"url": {
					"raw": "{{url}}/api/pais/todos",
					"host": [
						"{{url}}"
					],
					"path": [
						"api",
						"pais",
						"todos"
					]
				}
			},
			"response": []
		},
		{
			"name": "Pais - buscar por ID",
			"protocolProfileBehavior": {
				"disableBodyPruning": true
			},
			"request": {
				"method": "GET",
				"header": [],
				"body": {
					"mode": "raw",
					"raw": "{\n    \"nome\":\"Brasil\"\n}",
					"options": {
						"raw": {
							"language": "json"
						}
					}
				},
				"url": {
					"raw": "{{url}}/api/pais/ver/1",
					"host": [
						"{{url}}"
					],
					"path": [
						"api",
						"pais",
						"ver",
						"1"
					]
				}
			},
			"response": []
		},
		{
			"name": "TipoConta - nova entidade",
			"request": {
				"method": "POST",
				"header": [],
				"body": {
					"mode": "raw",
					"raw": "{\n    \"nome\": \"TESTE\"\n}",
					"options": {
						"raw": {
							"language": "json"
						}
					}
				},
				"url": {
					"raw": "{{url}}/api/tipoconta/novo",
					"host": [
						"{{url}}"
					],
					"path": [
						"api",
						"tipoconta",
						"novo"
					]
				}
			},
			"response": []
		},
		{
			"name": "TipoConta - update",
			"request": {
				"method": "PUT",
				"header": [],
				"body": {
					"mode": "raw",
					"raw": "{\n    \"nome\": \"TESTEX\"\n}",
					"options": {
						"raw": {
							"language": "json"
						}
					}
				},
				"url": {
					"raw": "{{url}}/api/tipoconta/editar/1",
					"host": [
						"{{url}}"
					],
					"path": [
						"api",
						"tipoconta",
						"editar",
						"1"
					]
				}
			},
			"response": []
		},
		{
			"name": "TipoConta - buscar todos",
			"protocolProfileBehavior": {
				"disableBodyPruning": true
			},
			"request": {
				"method": "GET",
				"header": [],
				"body": {
					"mode": "raw",
					"raw": "{\n    \"nome\": \"TESTEX\"\n}",
					"options": {
						"raw": {
							"language": "json"
						}
					}
				},
				"url": {
					"raw": "{{url}}/api/tipoconta/todos",
					"host": [
						"{{url}}"
					],
					"path": [
						"api",
						"tipoconta",
						"todos"
					]
				}
			},
			"response": []
		},
		{
			"name": "TipoConta - buscar por ID",
			"protocolProfileBehavior": {
				"disableBodyPruning": true
			},
			"request": {
				"method": "GET",
				"header": [],
				"body": {
					"mode": "raw",
					"raw": "{\n    \"nome\": \"TESTEX\"\n}",
					"options": {
						"raw": {
							"language": "json"
						}
					}
				},
				"url": {
					"raw": "{{url}}/api/tipoconta/ver/1",
					"host": [
						"{{url}}"
					],
					"path": [
						"api",
						"tipoconta",
						"ver",
						"1"
					]
				}
			},
			"response": []
		},
		{
			"name": "Usuario - nova entidade",
			"request": {
				"method": "POST",
				"header": [],
				"body": {
					"mode": "raw",
					"raw": "{\n    \"nome\": \"TESTEX\"\n}",
					"options": {
						"raw": {
							"language": "json"
						}
					}
				},
				"url": {
					"raw": "{{url}}/api/usuario/novo",
					"host": [
						"{{url}}"
					],
					"path": [
						"api",
						"usuario",
						"novo"
					]
				}
			},
			"response": []
		},
		{
			"name": "Usuario - update",
			"request": {
				"method": "PUT",
				"header": [],
				"body": {
					"mode": "raw",
					"raw": "{\n    \"nome\": \"TESTEasdX\"\n}",
					"options": {
						"raw": {
							"language": "json"
						}
					}
				},
				"url": {
					"raw": "{{url}}/api/usuario/editar/3",
					"host": [
						"{{url}}"
					],
					"path": [
						"api",
						"usuario",
						"editar",
						"3"
					]
				}
			},
			"response": []
		},
		{
			"name": "Usuario - buscar todos",
			"protocolProfileBehavior": {
				"disableBodyPruning": true
			},
			"request": {
				"method": "GET",
				"header": [],
				"body": {
					"mode": "raw",
					"raw": "{\n    \"nome\": \"TESTEasdX\"\n}",
					"options": {
						"raw": {
							"language": "json"
						}
					}
				},
				"url": {
					"raw": "{{url}}/api/usuario/todos",
					"host": [
						"{{url}}"
					],
					"path": [
						"api",
						"usuario",
						"todos"
					]
				}
			},
			"response": []
		},
		{
			"name": "Usuario - buscar por ID",
			"protocolProfileBehavior": {
				"disableBodyPruning": true
			},
			"request": {
				"method": "GET",
				"header": [],
				"body": {
					"mode": "raw",
					"raw": "{\n    \"nome\": \"TESTEasdX\"\n}",
					"options": {
						"raw": {
							"language": "json"
						}
					}
				},
				"url": {
					"raw": "{{url}}/api/usuario/ver/1",
					"host": [
						"{{url}}"
					],
					"path": [
						"api",
						"usuario",
						"ver",
						"1"
					]
				}
			},
			"response": []
		}
	],
	"protocolProfileBehavior": {}
}